…
```r
deserts %>% 
  count(species_id, sort=T)
```

```
## # A tibble: 48 x 2
##    species_id     n
##    <chr>      <int>
##  1 DM         10596
##  2 PP          3123
##  3 DO          3027
##  4 PB          2891
##  5 RM          2609
##  6 DS          2504
##  7 OT          2249
##  8 PF          1597
##  9 PE          1299
## 10 NL          1252
## # ... with 38 more rows
```
…
9. Which two species have, on average, the highest weight? Once you have identified them, make a new column that is a ratio of `weight` to `hindfoot_length`. Make a plot that shows the range of this new ratio and fill by sex.


```r
deserts %>% 
  filter(weight!="NA") %>% 
  group_by(species) %>% 
  summarize(mean_weight=mean(weight)) %>% 
  arrange(desc(mean_weight))
```

```
## # A tibble: 22 x 2
##    species      mean_weight
##    <chr>              <dbl>
##  1 albigula           159. 
##  2 spectabilis        120. 
##  3 spilosoma           93.5
##  4 hispidus            65.6
##  5 fulviventer         58.9
##  6 ochrognathus        55.4
##  7 ordii               48.9
##  8 merriami            43.2
##  9 baileyi             31.7
## 10 leucogaster         31.6
## # ... with 12 more rows
```
…
