…
2. Which cities in California have the highest number of colleges?

```r
colleges %>%
  select(city, instnm) %>% 
  group_by(city) %>% 
  summarise(n_colleges = n()) %>% 
  arrange(desc(n_colleges))
```

```
## # A tibble: 161 x 2
##    city          n_colleges
##    <chr>              <int>
##  1 Los Angeles           24
##  2 San Diego             18
##  3 San Francisco         15
##  4 Sacramento            10
##  5 Berkeley               9
##  6 Oakland                9
##  7 Claremont              7
##  8 Pasadena               6
##  9 Fresno                 5
## 10 Irvine                 5
## # ... with 151 more rows
```
…
4. The column `COSTT4_A` is the annual cost of each institution. Which city has the highest average cost? Where is it located?

```r
colleges %>% 
  group_by(city, stabbr) %>% 
  summarize(average_cost=mean(costt4_a, na.rm = T)) %>% 
  arrange(desc(average_cost))
```

```
## `summarise()` has grouped output by 'city'. You can override using the `.groups` argument.
```

```
## # A tibble: 161 x 3
## # Groups:   city [161]
##    city                stabbr average_cost
##    <chr>               <chr>         <dbl>
##  1 Claremont           CA            66498
##  2 Malibu              CA            66152
##  3 Valencia            CA            64686
##  4 Orange              CA            64501
##  5 Redlands            CA            61542
##  6 Moraga              CA            61095
##  7 Atherton            CA            56035
##  8 Thousand Oaks       CA            54373
##  9 Rancho Palos Verdes CA            50758
## 10 La Verne            CA            50603
## # ... with 151 more rows
```
…
