…
```r
naniar::miss_var_summary(wolves)
```

```
## # A tibble: 23 x 3
##    variable    n_miss pct_miss
##    <chr>        <int>    <dbl>
##  1 toxo.binary    827   41.6  
##  2 color          616   31.0  
##  3 chv.binary     548   27.6  
##  4 neo.binary     538   27.1  
##  5 cav.binary     321   16.2  
##  6 age.cat        102    5.14 
##  7 cdv.binary      21    1.06 
##  8 sex             19    0.957
##  9 cpv.binary       7    0.352
## 10 pop              0    0    
## # ... with 13 more rows
```
…
```
## [1] 17
```


```r
wolves_48 <- wolves %>% 
  filter(lat<=48)
wolves_48
```

```
## # A tibble: 1,169 x 23
##    pop    year age.cat sex   color   lat  long habitat human pop.density
##    <chr> <dbl> <chr>   <chr> <chr> <dbl> <dbl>   <dbl> <dbl>       <dbl>
##  1 GTNP   2012 P       M     G      43.8 -111.  10375. 3924.        34.0
##  2 GTNP   2012 P       F     G      43.8 -111.  10375. 3924.        34.0
##  3 GTNP   2012 P       F     G      43.8 -111.  10375. 3924.        34.0
##  4 GTNP   2012 P       M     B      43.8 -111.  10375. 3924.        34.0
##  5 GTNP   2013 A       F     G      43.8 -111.  10375. 3924.        34.0
##  6 GTNP   2013 A       M     G      43.8 -111.  10375. 3924.        34.0
##  7 GTNP   2013 P       M     G      43.8 -111.  10375. 3924.        34.0
##  8 GTNP   2013 P       M     G      43.8 -111.  10375. 3924.        34.0
##  9 GTNP   2013 P       M     G      43.8 -111.  10375. 3924.        34.0
## 10 GTNP   2013 P       F     G      43.8 -111.  10375. 3924.        34.0
## # ... with 1,159 more rows, and 13 more variables: pack.size <dbl>,
## #   standard.habitat <dbl>, standard.human <dbl>, standard.pop <dbl>,
## #   standard.packsize <dbl>, standard.latitude <dbl>, standard.longitude <dbl>,
## #   cav.binary <dbl>, cdv.binary <dbl>, cpv.binary <dbl>, chv.binary <dbl>,
## #   neo.binary <dbl>, toxo.binary <dbl>
```
…
