…
To keep things tidy, I am going to rename the variables in the mammals data.  

```r
mammals <- rename(mammals, genus=Genus, wean_mass="wean mass", max_life="max. life", litter_size="litter size", litters_per_year="litters/year")
```

## `filter()`
Unlike `select()`, `filter()` allows us to extract data that meet specific criteria within a variable. Let's say that we are interested only in the fish that occur in lake "AL". We can use `filter()` to extract these observations.  

```r
filter(fish, lakeid == "AL")
```

```
## # A tibble: 383 x 6
##    lakeid fish_id annnumber length radii_length_mm scalelength
##    <chr>    <dbl> <chr>      <dbl>           <dbl>       <dbl>
##  1 AL         299 EDGE         167            2.70        2.70
##  2 AL         299 2            167            2.04        2.70
##  3 AL         299 1            167            1.31        2.70
##  4 AL         300 EDGE         175            3.02        3.02
##  5 AL         300 3            175            2.67        3.02
##  6 AL         300 2            175            2.14        3.02
##  7 AL         300 1            175            1.23        3.02
##  8 AL         301 EDGE         194            3.34        3.34
##  9 AL         301 3            194            2.97        3.34
## 10 AL         301 2            194            2.29        3.34
## # ... with 373 more rows
```

Similarly, if we are only interested in fish with a length greater than or equal to 350 we can use `filter()` to extract these observations.  

```r
filter(fish, length >= 350)
```

```
## # A tibble: 890 x 6
##    lakeid fish_id annnumber length radii_length_mm scalelength
##    <chr>    <dbl> <chr>      <dbl>           <dbl>       <dbl>
##  1 AL         306 EDGE         350            6.94        6.94
##  2 AL         306 10           350            6.46        6.94
##  3 AL         306 9            350            6.16        6.94
##  4 AL         306 8            350            5.88        6.94
##  5 AL         306 7            350            5.42        6.94
##  6 AL         306 6            350            4.90        6.94
##  7 AL         306 5            350            4.46        6.94
##  8 AL         306 4            350            3.75        6.94
##  9 AL         306 3            350            2.93        6.94
## 10 AL         306 2            350            2.14        6.94
## # ... with 880 more rows
```
…
+ `filter()` allows all of the expected operators; i.e. >, >=, <, <=, != (not equal), and == (equal).  

Using the `!` operator allows for the exclusion of specific observations. (i.e. removes particular stuff)

```r
filter(fish, lakeid != "AL")
```

```
## # A tibble: 3,650 x 6
##    lakeid fish_id annnumber length radii_length_mm scalelength
##    <chr>    <dbl> <chr>      <dbl>           <dbl>       <dbl>
##  1 AR         269 EDGE         140            2.01        2.01
##  2 AR         269 1            140            1.48        2.01
##  3 AR         270 EDGE         193            2.66        2.66
##  4 AR         270 3            193            2.39        2.66
##  5 AR         270 2            193            2.03        2.66
##  6 AR         270 1            193            1.42        2.66
##  7 AR         271 EDGE         220            3.50        3.50
##  8 AR         271 5            220            3.13        3.50
##  9 AR         271 4            220            2.86        3.50
## 10 AR         271 3            220            2.63        3.50
## # ... with 3,640 more rows
```
…
You can also extract observations "near" a certain value but you need to specify a tolerance.  (within range of +-0.2 from 2)

```r
filter(fish, near(radii_length_mm, 2, tol = 0.2))
```

```
## # A tibble: 291 x 6
##    lakeid fish_id annnumber length radii_length_mm scalelength
##    <chr>    <dbl> <chr>      <dbl>           <dbl>       <dbl>
##  1 AL         299 2            167            2.04        2.70
##  2 AL         300 2            175            2.14        3.02
##  3 AL         302 2            324            2.19        6.07
##  4 AL         303 2            325            2.04        6.79
##  5 AL         306 2            350            2.14        6.94
##  6 AL         308 2            355            1.86        6.67
##  7 AL         312 2            367            2.17        6.81
##  8 AL         313 2            367            2.06        6.47
##  9 AL         315 2            372            2.04        6.47
## 10 AL         316 2            372            1.82        6.35
## # ... with 281 more rows
```

## Practice
1. Filter the `fish` data to include the samples from lake "BO".

```r
filter(fish, lakeid == "BO")
```

```
## # A tibble: 197 x 6
##    lakeid fish_id annnumber length radii_length_mm scalelength
##    <chr>    <dbl> <chr>      <dbl>           <dbl>       <dbl>
##  1 BO         389 EDGE         104           1.50         1.50
##  2 BO         389 1            104           0.736        1.50
##  3 BO         390 EDGE         105           1.59         1.59
##  4 BO         390 1            105           0.698        1.59
##  5 BO         391 EDGE         107           1.43         1.43
##  6 BO         391 1            107           0.695        1.43
##  7 BO         392 EDGE         124           2.11         2.11
##  8 BO         392 2            124           1.36         2.11
##  9 BO         392 1            124           0.792        2.11
## 10 BO         393 EDGE         141           2.16         2.16
## # ... with 187 more rows
```

2. Filter the data to include all lakes except "AR".

```r
filter(fish, lakeid != "AR")
```

```
## # A tibble: 3,771 x 6
##    lakeid fish_id annnumber length radii_length_mm scalelength
##    <chr>    <dbl> <chr>      <dbl>           <dbl>       <dbl>
##  1 AL         299 EDGE         167            2.70        2.70
##  2 AL         299 2            167            2.04        2.70
##  3 AL         299 1            167            1.31        2.70
##  4 AL         300 EDGE         175            3.02        3.02
##  5 AL         300 3            175            2.67        3.02
##  6 AL         300 2            175            2.14        3.02
##  7 AL         300 1            175            1.23        3.02
##  8 AL         301 EDGE         194            3.34        3.34
##  9 AL         301 3            194            2.97        3.34
## 10 AL         301 2            194            2.29        3.34
## # ... with 3,761 more rows
```

3. Filter the fish data to include all fish with a scalelength within 0.25 of 8.

```r
filter(fish, near(scalelength, 8, tol = 0.25))
```

```
## # A tibble: 236 x 6
##    lakeid fish_id annnumber length radii_length_mm scalelength
##    <chr>    <dbl> <chr>      <dbl>           <dbl>       <dbl>
##  1 AL         309 EDGE         355            7.89        7.89
##  2 AL         309 13           355            7.56        7.89
##  3 AL         309 12           355            7.36        7.89
##  4 AL         309 11           355            7.16        7.89
##  5 AL         309 10           355            6.77        7.89
##  6 AL         309 9            355            6.39        7.89
##  7 AL         309 8            355            5.96        7.89
##  8 AL         309 7            355            5.44        7.89
##  9 AL         309 6            355            4.74        7.89
## 10 AL         309 5            355            4.06        7.89
## # ... with 226 more rows
```

4. Filter the fish data to include fish with a scalelength between 2 and 4.

```r
filter(fish, between(scalelength, 2, 4))
```

```
## # A tibble: 723 x 6
##    lakeid fish_id annnumber length radii_length_mm scalelength
##    <chr>    <dbl> <chr>      <dbl>           <dbl>       <dbl>
##  1 AL         299 EDGE         167            2.70        2.70
##  2 AL         299 2            167            2.04        2.70
##  3 AL         299 1            167            1.31        2.70
##  4 AL         300 EDGE         175            3.02        3.02
##  5 AL         300 3            175            2.67        3.02
##  6 AL         300 2            175            2.14        3.02
##  7 AL         300 1            175            1.23        3.02
##  8 AL         301 EDGE         194            3.34        3.34
##  9 AL         301 3            194            2.97        3.34
## 10 AL         301 2            194            2.29        3.34
## # ... with 713 more rows
```

## Using `filter()` on multiple conditions
You can also use `filter()` to extract data based on multiple conditions. Below we extract only the fish that have lakeid "AL" and length >350.

```r
filter(fish, lakeid == "AL" & length > 350)
```

```
## # A tibble: 314 x 6
##    lakeid fish_id annnumber length radii_length_mm scalelength
##    <chr>    <dbl> <chr>      <dbl>           <dbl>       <dbl>
##  1 AL         307 EDGE         353            7.55        7.55
##  2 AL         307 13           353            7.28        7.55
##  3 AL         307 12           353            6.98        7.55
##  4 AL         307 11           353            6.73        7.55
##  5 AL         307 10           353            6.48        7.55
##  6 AL         307 9            353            6.22        7.55
##  7 AL         307 8            353            5.92        7.55
##  8 AL         307 7            353            5.44        7.55
##  9 AL         307 6            353            5.06        7.55
## 10 AL         307 5            353            4.37        7.55
## # ... with 304 more rows
```
Using & gave only values that satisfy both conditions together. You can also add 3rd, 4th, 5th conditions.

Notice that the `|` operator generates a different result. (this is for 'or' so if any one condition is met then observatipn is included.)

```r
filter(fish, lakeid == "AL" | length > 350)
```

```
## # A tibble: 948 x 6
##    lakeid fish_id annnumber length radii_length_mm scalelength
##    <chr>    <dbl> <chr>      <dbl>           <dbl>       <dbl>
##  1 AL         299 EDGE         167            2.70        2.70
##  2 AL         299 2            167            2.04        2.70
##  3 AL         299 1            167            1.31        2.70
##  4 AL         300 EDGE         175            3.02        3.02
##  5 AL         300 3            175            2.67        3.02
##  6 AL         300 2            175            2.14        3.02
##  7 AL         300 1            175            1.23        3.02
##  8 AL         301 EDGE         194            3.34        3.34
##  9 AL         301 3            194            2.97        3.34
## 10 AL         301 2            194            2.29        3.34
## # ... with 938 more rows
```

Rules:  
+ `filter(condition1, condition2)` will return rows where both conditions are met.  
+ `filter(condition1, !condition2)` will return all rows where condition one is true but condition 2 is not.  
+ `filter(condition1 | condition2)` will return rows where condition 1 and/or condition 2 is met.  
+ `filter(xor(condition1, condition2)` will return all rows where only one of the conditions is met, and not when both conditions are met.  

In this case, we filter out the fish with a length over 400 and a scale length over 11 or a radii length over 8.

```r
filter(fish, length > 400, (scalelength > 11 | radii_length_mm > 8))
```

```
## # A tibble: 23 x 6
##    lakeid fish_id annnumber length radii_length_mm scalelength
##    <chr>    <dbl> <chr>      <dbl>           <dbl>       <dbl>
##  1 AL         324 EDGE         406            8.21        8.21
##  2 AL         327 EDGE         413            8.33        8.33
##  3 AL         327 15           413            8.11        8.33
##  4 AL         328 EDGE         420            8.71        8.71
##  5 AL         328 16           420            8.41        8.71
##  6 AL         328 15           420            8.14        8.71
##  7 WS         180 EDGE         403           11.0        11.0 
##  8 WS         180 16           403           10.6        11.0 
##  9 WS         180 15           403           10.3        11.0 
## 10 WS         180 14           403            9.93       11.0 
## # ... with 13 more rows
```
…
4. Let's say we are only interested in family, genus, species, mass, and gestation. Relimit the mammals data frame to these variables.  

```r
mammals_relimited<- select(mammals, "family", "genus", "species", "mass", "gestation")
mammals_relimited
```

```
## # A tibble: 1,440 x 5
##    family         genus       species          mass gestation
##    <chr>          <chr>       <chr>           <dbl>     <dbl>
##  1 Antilocapridae Antilocapra americana      45375       8.13
##  2 Bovidae        Addax       nasomaculatus 182375       9.39
##  3 Bovidae        Aepyceros   melampus       41480       6.35
##  4 Bovidae        Alcelaphus  buselaphus    150000       7.9 
##  5 Bovidae        Ammodorcas  clarkei        28500       6.8 
##  6 Bovidae        Ammotragus  lervia         55500       5.08
##  7 Bovidae        Antidorcas  marsupialis    30000       5.72
##  8 Bovidae        Antilope    cervicapra     37500       5.5 
##  9 Bovidae        Bison       bison         497667.      8.93
## 10 Bovidae        Bison       bonasus       500000       9.14
## # ... with 1,430 more rows
```
…
