…
```
## # A tibble: 1 x 1
##   distinct.country
##              <int>
## 1              203
```


```r
fisheries_tidy %>% 
  count(country)
```

```
## # A tibble: 203 x 2
##    country                 n
##  * <fct>               <int>
##  1 Albania               934
##  2 Algeria              1561
##  3 American Samoa        556
##  4 Angola               2119
##  5 Anguilla              129
##  6 Antigua and Barbuda   356
##  7 Argentina            3403
##  8 Aruba                 172
##  9 Australia            8183
## 10 Bahamas               423
## # ... with 193 more rows
```

4. Refocus the data only to include only: country, isscaap_taxonomic_group, asfis_species_name, asfis_species_number, year, catch.

```r
fisheries_tidy_new <-fisheries_tidy %>% 
  select(country, isscaap_taxonomic_group, asfis_species_name, asfis_species_number, year, catch)
fisheries_tidy_new
```

```
## # A tibble: 376,771 x 6
##    country isscaap_taxonomic_g~ asfis_species_na~ asfis_species_num~  year catch
##    <fct>   <chr>                <chr>             <fct>              <dbl> <dbl>
##  1 Albania Sharks, rays, chima~ Squatinidae       10903XXXXX          1995    NA
##  2 Albania Sharks, rays, chima~ Squatinidae       10903XXXXX          1996    53
##  3 Albania Sharks, rays, chima~ Squatinidae       10903XXXXX          1997    20
##  4 Albania Sharks, rays, chima~ Squatinidae       10903XXXXX          1998    31
##  5 Albania Sharks, rays, chima~ Squatinidae       10903XXXXX          1999    30
##  6 Albania Sharks, rays, chima~ Squatinidae       10903XXXXX          2000    30
##  7 Albania Sharks, rays, chima~ Squatinidae       10903XXXXX          2001    16
##  8 Albania Sharks, rays, chima~ Squatinidae       10903XXXXX          2002    79
##  9 Albania Sharks, rays, chima~ Squatinidae       10903XXXXX          2003     1
## 10 Albania Sharks, rays, chima~ Squatinidae       10903XXXXX          2004     4
## # ... with 376,761 more rows
```
…
6. Which country had the largest overall catch in the year 2000?

```r
fisheries_tidy %>%
  filter(year=="2000") %>% 
  group_by(country) %>% 
  summarize(catch2000=sum(catch,na.rm=T)) %>% 
  arrange(desc(catch2000))
```

```
## # A tibble: 193 x 2
##    country                  catch2000
##    <fct>                        <dbl>
##  1 China                        25899
##  2 Russian Federation           12181
##  3 United States of America     11762
##  4 Japan                         8510
##  5 Indonesia                     8341
##  6 Peru                          7443
##  7 Chile                         6906
##  8 India                         6351
##  9 Thailand                      6243
## 10 Korea, Republic of            6124
## # ... with 183 more rows
```
…
7. Which country caught the most sardines (_Sardina pilchardus_) between the years 1990-2000?

```r
fisheries_tidy %>% 
  filter(between(year,1990,2000), asfis_species_name=="Sardina pilchardus") %>% 
  group_by(country) %>%
  summarize(most_sardines=sum(catch, na.rm=T)) %>% 
  arrange(desc(most_sardines))
```

```
## # A tibble: 37 x 2
##    country               most_sardines
##    <fct>                         <dbl>
##  1 Morocco                        7470
##  2 Spain                          3507
##  3 Russian Federation             1639
##  4 Ukraine                        1030
##  5 France                          966
##  6 Portugal                        818
##  7 Greece                          528
##  8 Italy                           507
##  9 Serbia and Montenegro           478
## 10 Denmark                         477
## # ... with 27 more rows
```
…
9. Which species had the highest catch total between 2008-2012? (hint: Osteichthyes is not a species)

```r
fisheries_tidy%>%
  filter(between(year,2008,2012)) %>%
  group_by(asfis_species_name) %>% 
  filter(asfis_species_name != "Osteichthyes") %>% 
  summarize(highest_catch=sum(catch, na.rm=T)) %>% 
  arrange(desc(highest_catch))
```

```
## # A tibble: 1,471 x 2
##    asfis_species_name    highest_catch
##    <chr>                         <dbl>
##  1 Theragra chalcogramma         41075
##  2 Engraulis ringens             35523
##  3 Katsuwonus pelamis            32153
##  4 Trichiurus lepturus           30400
##  5 Clupea harengus               28527
##  6 Thunnus albacares             20119
##  7 Scomber japonicus             14723
##  8 Gadus morhua                  13253
##  9 Thunnus alalunga              12019
## 10 Natantia                      11984
## # ... with 1,461 more rows
```
…
```r
fisheries_tidy %>% 
  filter(between(year,2000,2012), asfis_species_name=="Boops boops") %>% 
  group_by(country) %>%
  summarize(most_boops=sum(catch, na.rm=T)) %>% 
  arrange(desc(most_boops))
```

```
## # A tibble: 25 x 2
##    country                 most_boops
##    <fct>                        <dbl>
##  1 Sao Tome and Principe          555
##  2 France                         554
##  3 Israel                         517
##  4 Albania                        482
##  5 Palestine, Occupied Tr.        332
##  6 Syrian Arab Republic           316
##  7 Spain                          299
##  8 Portugal                       285
##  9 Malta                          283
## 10 Senegal                        277
## # ... with 15 more rows
```
…
